G04 #@! TF.GenerationSoftware,KiCad,Pcbnew,(5.0.0)*
G04 #@! TF.CreationDate,2021-04-28T16:20:22-04:00*
G04 #@! TF.ProjectId,SmartBoard - Grid,536D617274426F617264202D20477269,rev?*
G04 #@! TF.SameCoordinates,Original*
G04 #@! TF.FileFunction,Paste,Top*
G04 #@! TF.FilePolarity,Positive*
%FSLAX46Y46*%
G04 Gerber Fmt 4.6, Leading zero omitted, Abs format (unit mm)*
G04 Created by KiCad (PCBNEW (5.0.0)) date 04/28/21 16:20:22*
%MOMM*%
%LPD*%
G01*
G04 APERTURE LIST*
%ADD10C,0.100000*%
%ADD11C,0.875000*%
G04 APERTURE END LIST*
D10*
G04 #@! TO.C,R1*
G36*
X128992691Y-46516053D02*
X129013926Y-46519203D01*
X129034750Y-46524419D01*
X129054962Y-46531651D01*
X129074368Y-46540830D01*
X129092781Y-46551866D01*
X129110024Y-46564654D01*
X129125930Y-46579070D01*
X129140346Y-46594976D01*
X129153134Y-46612219D01*
X129164170Y-46630632D01*
X129173349Y-46650038D01*
X129180581Y-46670250D01*
X129185797Y-46691074D01*
X129188947Y-46712309D01*
X129190000Y-46733750D01*
X129190000Y-47246250D01*
X129188947Y-47267691D01*
X129185797Y-47288926D01*
X129180581Y-47309750D01*
X129173349Y-47329962D01*
X129164170Y-47349368D01*
X129153134Y-47367781D01*
X129140346Y-47385024D01*
X129125930Y-47400930D01*
X129110024Y-47415346D01*
X129092781Y-47428134D01*
X129074368Y-47439170D01*
X129054962Y-47448349D01*
X129034750Y-47455581D01*
X129013926Y-47460797D01*
X128992691Y-47463947D01*
X128971250Y-47465000D01*
X128533750Y-47465000D01*
X128512309Y-47463947D01*
X128491074Y-47460797D01*
X128470250Y-47455581D01*
X128450038Y-47448349D01*
X128430632Y-47439170D01*
X128412219Y-47428134D01*
X128394976Y-47415346D01*
X128379070Y-47400930D01*
X128364654Y-47385024D01*
X128351866Y-47367781D01*
X128340830Y-47349368D01*
X128331651Y-47329962D01*
X128324419Y-47309750D01*
X128319203Y-47288926D01*
X128316053Y-47267691D01*
X128315000Y-47246250D01*
X128315000Y-46733750D01*
X128316053Y-46712309D01*
X128319203Y-46691074D01*
X128324419Y-46670250D01*
X128331651Y-46650038D01*
X128340830Y-46630632D01*
X128351866Y-46612219D01*
X128364654Y-46594976D01*
X128379070Y-46579070D01*
X128394976Y-46564654D01*
X128412219Y-46551866D01*
X128430632Y-46540830D01*
X128450038Y-46531651D01*
X128470250Y-46524419D01*
X128491074Y-46519203D01*
X128512309Y-46516053D01*
X128533750Y-46515000D01*
X128971250Y-46515000D01*
X128992691Y-46516053D01*
X128992691Y-46516053D01*
G37*
D11*
X128752500Y-46990000D03*
D10*
G36*
X130567691Y-46516053D02*
X130588926Y-46519203D01*
X130609750Y-46524419D01*
X130629962Y-46531651D01*
X130649368Y-46540830D01*
X130667781Y-46551866D01*
X130685024Y-46564654D01*
X130700930Y-46579070D01*
X130715346Y-46594976D01*
X130728134Y-46612219D01*
X130739170Y-46630632D01*
X130748349Y-46650038D01*
X130755581Y-46670250D01*
X130760797Y-46691074D01*
X130763947Y-46712309D01*
X130765000Y-46733750D01*
X130765000Y-47246250D01*
X130763947Y-47267691D01*
X130760797Y-47288926D01*
X130755581Y-47309750D01*
X130748349Y-47329962D01*
X130739170Y-47349368D01*
X130728134Y-47367781D01*
X130715346Y-47385024D01*
X130700930Y-47400930D01*
X130685024Y-47415346D01*
X130667781Y-47428134D01*
X130649368Y-47439170D01*
X130629962Y-47448349D01*
X130609750Y-47455581D01*
X130588926Y-47460797D01*
X130567691Y-47463947D01*
X130546250Y-47465000D01*
X130108750Y-47465000D01*
X130087309Y-47463947D01*
X130066074Y-47460797D01*
X130045250Y-47455581D01*
X130025038Y-47448349D01*
X130005632Y-47439170D01*
X129987219Y-47428134D01*
X129969976Y-47415346D01*
X129954070Y-47400930D01*
X129939654Y-47385024D01*
X129926866Y-47367781D01*
X129915830Y-47349368D01*
X129906651Y-47329962D01*
X129899419Y-47309750D01*
X129894203Y-47288926D01*
X129891053Y-47267691D01*
X129890000Y-47246250D01*
X129890000Y-46733750D01*
X129891053Y-46712309D01*
X129894203Y-46691074D01*
X129899419Y-46670250D01*
X129906651Y-46650038D01*
X129915830Y-46630632D01*
X129926866Y-46612219D01*
X129939654Y-46594976D01*
X129954070Y-46579070D01*
X129969976Y-46564654D01*
X129987219Y-46551866D01*
X130005632Y-46540830D01*
X130025038Y-46531651D01*
X130045250Y-46524419D01*
X130066074Y-46519203D01*
X130087309Y-46516053D01*
X130108750Y-46515000D01*
X130546250Y-46515000D01*
X130567691Y-46516053D01*
X130567691Y-46516053D01*
G37*
D11*
X130327500Y-46990000D03*
G04 #@! TD*
D10*
G04 #@! TO.C,R2*
G36*
X130567691Y-43976053D02*
X130588926Y-43979203D01*
X130609750Y-43984419D01*
X130629962Y-43991651D01*
X130649368Y-44000830D01*
X130667781Y-44011866D01*
X130685024Y-44024654D01*
X130700930Y-44039070D01*
X130715346Y-44054976D01*
X130728134Y-44072219D01*
X130739170Y-44090632D01*
X130748349Y-44110038D01*
X130755581Y-44130250D01*
X130760797Y-44151074D01*
X130763947Y-44172309D01*
X130765000Y-44193750D01*
X130765000Y-44706250D01*
X130763947Y-44727691D01*
X130760797Y-44748926D01*
X130755581Y-44769750D01*
X130748349Y-44789962D01*
X130739170Y-44809368D01*
X130728134Y-44827781D01*
X130715346Y-44845024D01*
X130700930Y-44860930D01*
X130685024Y-44875346D01*
X130667781Y-44888134D01*
X130649368Y-44899170D01*
X130629962Y-44908349D01*
X130609750Y-44915581D01*
X130588926Y-44920797D01*
X130567691Y-44923947D01*
X130546250Y-44925000D01*
X130108750Y-44925000D01*
X130087309Y-44923947D01*
X130066074Y-44920797D01*
X130045250Y-44915581D01*
X130025038Y-44908349D01*
X130005632Y-44899170D01*
X129987219Y-44888134D01*
X129969976Y-44875346D01*
X129954070Y-44860930D01*
X129939654Y-44845024D01*
X129926866Y-44827781D01*
X129915830Y-44809368D01*
X129906651Y-44789962D01*
X129899419Y-44769750D01*
X129894203Y-44748926D01*
X129891053Y-44727691D01*
X129890000Y-44706250D01*
X129890000Y-44193750D01*
X129891053Y-44172309D01*
X129894203Y-44151074D01*
X129899419Y-44130250D01*
X129906651Y-44110038D01*
X129915830Y-44090632D01*
X129926866Y-44072219D01*
X129939654Y-44054976D01*
X129954070Y-44039070D01*
X129969976Y-44024654D01*
X129987219Y-44011866D01*
X130005632Y-44000830D01*
X130025038Y-43991651D01*
X130045250Y-43984419D01*
X130066074Y-43979203D01*
X130087309Y-43976053D01*
X130108750Y-43975000D01*
X130546250Y-43975000D01*
X130567691Y-43976053D01*
X130567691Y-43976053D01*
G37*
D11*
X130327500Y-44450000D03*
D10*
G36*
X128992691Y-43976053D02*
X129013926Y-43979203D01*
X129034750Y-43984419D01*
X129054962Y-43991651D01*
X129074368Y-44000830D01*
X129092781Y-44011866D01*
X129110024Y-44024654D01*
X129125930Y-44039070D01*
X129140346Y-44054976D01*
X129153134Y-44072219D01*
X129164170Y-44090632D01*
X129173349Y-44110038D01*
X129180581Y-44130250D01*
X129185797Y-44151074D01*
X129188947Y-44172309D01*
X129190000Y-44193750D01*
X129190000Y-44706250D01*
X129188947Y-44727691D01*
X129185797Y-44748926D01*
X129180581Y-44769750D01*
X129173349Y-44789962D01*
X129164170Y-44809368D01*
X129153134Y-44827781D01*
X129140346Y-44845024D01*
X129125930Y-44860930D01*
X129110024Y-44875346D01*
X129092781Y-44888134D01*
X129074368Y-44899170D01*
X129054962Y-44908349D01*
X129034750Y-44915581D01*
X129013926Y-44920797D01*
X128992691Y-44923947D01*
X128971250Y-44925000D01*
X128533750Y-44925000D01*
X128512309Y-44923947D01*
X128491074Y-44920797D01*
X128470250Y-44915581D01*
X128450038Y-44908349D01*
X128430632Y-44899170D01*
X128412219Y-44888134D01*
X128394976Y-44875346D01*
X128379070Y-44860930D01*
X128364654Y-44845024D01*
X128351866Y-44827781D01*
X128340830Y-44809368D01*
X128331651Y-44789962D01*
X128324419Y-44769750D01*
X128319203Y-44748926D01*
X128316053Y-44727691D01*
X128315000Y-44706250D01*
X128315000Y-44193750D01*
X128316053Y-44172309D01*
X128319203Y-44151074D01*
X128324419Y-44130250D01*
X128331651Y-44110038D01*
X128340830Y-44090632D01*
X128351866Y-44072219D01*
X128364654Y-44054976D01*
X128379070Y-44039070D01*
X128394976Y-44024654D01*
X128412219Y-44011866D01*
X128430632Y-44000830D01*
X128450038Y-43991651D01*
X128470250Y-43984419D01*
X128491074Y-43979203D01*
X128512309Y-43976053D01*
X128533750Y-43975000D01*
X128971250Y-43975000D01*
X128992691Y-43976053D01*
X128992691Y-43976053D01*
G37*
D11*
X128752500Y-44450000D03*
G04 #@! TD*
D10*
G04 #@! TO.C,R3*
G36*
X128992691Y-41436053D02*
X129013926Y-41439203D01*
X129034750Y-41444419D01*
X129054962Y-41451651D01*
X129074368Y-41460830D01*
X129092781Y-41471866D01*
X129110024Y-41484654D01*
X129125930Y-41499070D01*
X129140346Y-41514976D01*
X129153134Y-41532219D01*
X129164170Y-41550632D01*
X129173349Y-41570038D01*
X129180581Y-41590250D01*
X129185797Y-41611074D01*
X129188947Y-41632309D01*
X129190000Y-41653750D01*
X129190000Y-42166250D01*
X129188947Y-42187691D01*
X129185797Y-42208926D01*
X129180581Y-42229750D01*
X129173349Y-42249962D01*
X129164170Y-42269368D01*
X129153134Y-42287781D01*
X129140346Y-42305024D01*
X129125930Y-42320930D01*
X129110024Y-42335346D01*
X129092781Y-42348134D01*
X129074368Y-42359170D01*
X129054962Y-42368349D01*
X129034750Y-42375581D01*
X129013926Y-42380797D01*
X128992691Y-42383947D01*
X128971250Y-42385000D01*
X128533750Y-42385000D01*
X128512309Y-42383947D01*
X128491074Y-42380797D01*
X128470250Y-42375581D01*
X128450038Y-42368349D01*
X128430632Y-42359170D01*
X128412219Y-42348134D01*
X128394976Y-42335346D01*
X128379070Y-42320930D01*
X128364654Y-42305024D01*
X128351866Y-42287781D01*
X128340830Y-42269368D01*
X128331651Y-42249962D01*
X128324419Y-42229750D01*
X128319203Y-42208926D01*
X128316053Y-42187691D01*
X128315000Y-42166250D01*
X128315000Y-41653750D01*
X128316053Y-41632309D01*
X128319203Y-41611074D01*
X128324419Y-41590250D01*
X128331651Y-41570038D01*
X128340830Y-41550632D01*
X128351866Y-41532219D01*
X128364654Y-41514976D01*
X128379070Y-41499070D01*
X128394976Y-41484654D01*
X128412219Y-41471866D01*
X128430632Y-41460830D01*
X128450038Y-41451651D01*
X128470250Y-41444419D01*
X128491074Y-41439203D01*
X128512309Y-41436053D01*
X128533750Y-41435000D01*
X128971250Y-41435000D01*
X128992691Y-41436053D01*
X128992691Y-41436053D01*
G37*
D11*
X128752500Y-41910000D03*
D10*
G36*
X130567691Y-41436053D02*
X130588926Y-41439203D01*
X130609750Y-41444419D01*
X130629962Y-41451651D01*
X130649368Y-41460830D01*
X130667781Y-41471866D01*
X130685024Y-41484654D01*
X130700930Y-41499070D01*
X130715346Y-41514976D01*
X130728134Y-41532219D01*
X130739170Y-41550632D01*
X130748349Y-41570038D01*
X130755581Y-41590250D01*
X130760797Y-41611074D01*
X130763947Y-41632309D01*
X130765000Y-41653750D01*
X130765000Y-42166250D01*
X130763947Y-42187691D01*
X130760797Y-42208926D01*
X130755581Y-42229750D01*
X130748349Y-42249962D01*
X130739170Y-42269368D01*
X130728134Y-42287781D01*
X130715346Y-42305024D01*
X130700930Y-42320930D01*
X130685024Y-42335346D01*
X130667781Y-42348134D01*
X130649368Y-42359170D01*
X130629962Y-42368349D01*
X130609750Y-42375581D01*
X130588926Y-42380797D01*
X130567691Y-42383947D01*
X130546250Y-42385000D01*
X130108750Y-42385000D01*
X130087309Y-42383947D01*
X130066074Y-42380797D01*
X130045250Y-42375581D01*
X130025038Y-42368349D01*
X130005632Y-42359170D01*
X129987219Y-42348134D01*
X129969976Y-42335346D01*
X129954070Y-42320930D01*
X129939654Y-42305024D01*
X129926866Y-42287781D01*
X129915830Y-42269368D01*
X129906651Y-42249962D01*
X129899419Y-42229750D01*
X129894203Y-42208926D01*
X129891053Y-42187691D01*
X129890000Y-42166250D01*
X129890000Y-41653750D01*
X129891053Y-41632309D01*
X129894203Y-41611074D01*
X129899419Y-41590250D01*
X129906651Y-41570038D01*
X129915830Y-41550632D01*
X129926866Y-41532219D01*
X129939654Y-41514976D01*
X129954070Y-41499070D01*
X129969976Y-41484654D01*
X129987219Y-41471866D01*
X130005632Y-41460830D01*
X130025038Y-41451651D01*
X130045250Y-41444419D01*
X130066074Y-41439203D01*
X130087309Y-41436053D01*
X130108750Y-41435000D01*
X130546250Y-41435000D01*
X130567691Y-41436053D01*
X130567691Y-41436053D01*
G37*
D11*
X130327500Y-41910000D03*
G04 #@! TD*
D10*
G04 #@! TO.C,R4*
G36*
X130567691Y-38896053D02*
X130588926Y-38899203D01*
X130609750Y-38904419D01*
X130629962Y-38911651D01*
X130649368Y-38920830D01*
X130667781Y-38931866D01*
X130685024Y-38944654D01*
X130700930Y-38959070D01*
X130715346Y-38974976D01*
X130728134Y-38992219D01*
X130739170Y-39010632D01*
X130748349Y-39030038D01*
X130755581Y-39050250D01*
X130760797Y-39071074D01*
X130763947Y-39092309D01*
X130765000Y-39113750D01*
X130765000Y-39626250D01*
X130763947Y-39647691D01*
X130760797Y-39668926D01*
X130755581Y-39689750D01*
X130748349Y-39709962D01*
X130739170Y-39729368D01*
X130728134Y-39747781D01*
X130715346Y-39765024D01*
X130700930Y-39780930D01*
X130685024Y-39795346D01*
X130667781Y-39808134D01*
X130649368Y-39819170D01*
X130629962Y-39828349D01*
X130609750Y-39835581D01*
X130588926Y-39840797D01*
X130567691Y-39843947D01*
X130546250Y-39845000D01*
X130108750Y-39845000D01*
X130087309Y-39843947D01*
X130066074Y-39840797D01*
X130045250Y-39835581D01*
X130025038Y-39828349D01*
X130005632Y-39819170D01*
X129987219Y-39808134D01*
X129969976Y-39795346D01*
X129954070Y-39780930D01*
X129939654Y-39765024D01*
X129926866Y-39747781D01*
X129915830Y-39729368D01*
X129906651Y-39709962D01*
X129899419Y-39689750D01*
X129894203Y-39668926D01*
X129891053Y-39647691D01*
X129890000Y-39626250D01*
X129890000Y-39113750D01*
X129891053Y-39092309D01*
X129894203Y-39071074D01*
X129899419Y-39050250D01*
X129906651Y-39030038D01*
X129915830Y-39010632D01*
X129926866Y-38992219D01*
X129939654Y-38974976D01*
X129954070Y-38959070D01*
X129969976Y-38944654D01*
X129987219Y-38931866D01*
X130005632Y-38920830D01*
X130025038Y-38911651D01*
X130045250Y-38904419D01*
X130066074Y-38899203D01*
X130087309Y-38896053D01*
X130108750Y-38895000D01*
X130546250Y-38895000D01*
X130567691Y-38896053D01*
X130567691Y-38896053D01*
G37*
D11*
X130327500Y-39370000D03*
D10*
G36*
X128992691Y-38896053D02*
X129013926Y-38899203D01*
X129034750Y-38904419D01*
X129054962Y-38911651D01*
X129074368Y-38920830D01*
X129092781Y-38931866D01*
X129110024Y-38944654D01*
X129125930Y-38959070D01*
X129140346Y-38974976D01*
X129153134Y-38992219D01*
X129164170Y-39010632D01*
X129173349Y-39030038D01*
X129180581Y-39050250D01*
X129185797Y-39071074D01*
X129188947Y-39092309D01*
X129190000Y-39113750D01*
X129190000Y-39626250D01*
X129188947Y-39647691D01*
X129185797Y-39668926D01*
X129180581Y-39689750D01*
X129173349Y-39709962D01*
X129164170Y-39729368D01*
X129153134Y-39747781D01*
X129140346Y-39765024D01*
X129125930Y-39780930D01*
X129110024Y-39795346D01*
X129092781Y-39808134D01*
X129074368Y-39819170D01*
X129054962Y-39828349D01*
X129034750Y-39835581D01*
X129013926Y-39840797D01*
X128992691Y-39843947D01*
X128971250Y-39845000D01*
X128533750Y-39845000D01*
X128512309Y-39843947D01*
X128491074Y-39840797D01*
X128470250Y-39835581D01*
X128450038Y-39828349D01*
X128430632Y-39819170D01*
X128412219Y-39808134D01*
X128394976Y-39795346D01*
X128379070Y-39780930D01*
X128364654Y-39765024D01*
X128351866Y-39747781D01*
X128340830Y-39729368D01*
X128331651Y-39709962D01*
X128324419Y-39689750D01*
X128319203Y-39668926D01*
X128316053Y-39647691D01*
X128315000Y-39626250D01*
X128315000Y-39113750D01*
X128316053Y-39092309D01*
X128319203Y-39071074D01*
X128324419Y-39050250D01*
X128331651Y-39030038D01*
X128340830Y-39010632D01*
X128351866Y-38992219D01*
X128364654Y-38974976D01*
X128379070Y-38959070D01*
X128394976Y-38944654D01*
X128412219Y-38931866D01*
X128430632Y-38920830D01*
X128450038Y-38911651D01*
X128470250Y-38904419D01*
X128491074Y-38899203D01*
X128512309Y-38896053D01*
X128533750Y-38895000D01*
X128971250Y-38895000D01*
X128992691Y-38896053D01*
X128992691Y-38896053D01*
G37*
D11*
X128752500Y-39370000D03*
G04 #@! TD*
D10*
G04 #@! TO.C,R5*
G36*
X107707691Y-38896053D02*
X107728926Y-38899203D01*
X107749750Y-38904419D01*
X107769962Y-38911651D01*
X107789368Y-38920830D01*
X107807781Y-38931866D01*
X107825024Y-38944654D01*
X107840930Y-38959070D01*
X107855346Y-38974976D01*
X107868134Y-38992219D01*
X107879170Y-39010632D01*
X107888349Y-39030038D01*
X107895581Y-39050250D01*
X107900797Y-39071074D01*
X107903947Y-39092309D01*
X107905000Y-39113750D01*
X107905000Y-39626250D01*
X107903947Y-39647691D01*
X107900797Y-39668926D01*
X107895581Y-39689750D01*
X107888349Y-39709962D01*
X107879170Y-39729368D01*
X107868134Y-39747781D01*
X107855346Y-39765024D01*
X107840930Y-39780930D01*
X107825024Y-39795346D01*
X107807781Y-39808134D01*
X107789368Y-39819170D01*
X107769962Y-39828349D01*
X107749750Y-39835581D01*
X107728926Y-39840797D01*
X107707691Y-39843947D01*
X107686250Y-39845000D01*
X107248750Y-39845000D01*
X107227309Y-39843947D01*
X107206074Y-39840797D01*
X107185250Y-39835581D01*
X107165038Y-39828349D01*
X107145632Y-39819170D01*
X107127219Y-39808134D01*
X107109976Y-39795346D01*
X107094070Y-39780930D01*
X107079654Y-39765024D01*
X107066866Y-39747781D01*
X107055830Y-39729368D01*
X107046651Y-39709962D01*
X107039419Y-39689750D01*
X107034203Y-39668926D01*
X107031053Y-39647691D01*
X107030000Y-39626250D01*
X107030000Y-39113750D01*
X107031053Y-39092309D01*
X107034203Y-39071074D01*
X107039419Y-39050250D01*
X107046651Y-39030038D01*
X107055830Y-39010632D01*
X107066866Y-38992219D01*
X107079654Y-38974976D01*
X107094070Y-38959070D01*
X107109976Y-38944654D01*
X107127219Y-38931866D01*
X107145632Y-38920830D01*
X107165038Y-38911651D01*
X107185250Y-38904419D01*
X107206074Y-38899203D01*
X107227309Y-38896053D01*
X107248750Y-38895000D01*
X107686250Y-38895000D01*
X107707691Y-38896053D01*
X107707691Y-38896053D01*
G37*
D11*
X107467500Y-39370000D03*
D10*
G36*
X106132691Y-38896053D02*
X106153926Y-38899203D01*
X106174750Y-38904419D01*
X106194962Y-38911651D01*
X106214368Y-38920830D01*
X106232781Y-38931866D01*
X106250024Y-38944654D01*
X106265930Y-38959070D01*
X106280346Y-38974976D01*
X106293134Y-38992219D01*
X106304170Y-39010632D01*
X106313349Y-39030038D01*
X106320581Y-39050250D01*
X106325797Y-39071074D01*
X106328947Y-39092309D01*
X106330000Y-39113750D01*
X106330000Y-39626250D01*
X106328947Y-39647691D01*
X106325797Y-39668926D01*
X106320581Y-39689750D01*
X106313349Y-39709962D01*
X106304170Y-39729368D01*
X106293134Y-39747781D01*
X106280346Y-39765024D01*
X106265930Y-39780930D01*
X106250024Y-39795346D01*
X106232781Y-39808134D01*
X106214368Y-39819170D01*
X106194962Y-39828349D01*
X106174750Y-39835581D01*
X106153926Y-39840797D01*
X106132691Y-39843947D01*
X106111250Y-39845000D01*
X105673750Y-39845000D01*
X105652309Y-39843947D01*
X105631074Y-39840797D01*
X105610250Y-39835581D01*
X105590038Y-39828349D01*
X105570632Y-39819170D01*
X105552219Y-39808134D01*
X105534976Y-39795346D01*
X105519070Y-39780930D01*
X105504654Y-39765024D01*
X105491866Y-39747781D01*
X105480830Y-39729368D01*
X105471651Y-39709962D01*
X105464419Y-39689750D01*
X105459203Y-39668926D01*
X105456053Y-39647691D01*
X105455000Y-39626250D01*
X105455000Y-39113750D01*
X105456053Y-39092309D01*
X105459203Y-39071074D01*
X105464419Y-39050250D01*
X105471651Y-39030038D01*
X105480830Y-39010632D01*
X105491866Y-38992219D01*
X105504654Y-38974976D01*
X105519070Y-38959070D01*
X105534976Y-38944654D01*
X105552219Y-38931866D01*
X105570632Y-38920830D01*
X105590038Y-38911651D01*
X105610250Y-38904419D01*
X105631074Y-38899203D01*
X105652309Y-38896053D01*
X105673750Y-38895000D01*
X106111250Y-38895000D01*
X106132691Y-38896053D01*
X106132691Y-38896053D01*
G37*
D11*
X105892500Y-39370000D03*
G04 #@! TD*
D10*
G04 #@! TO.C,R6*
G36*
X106132691Y-41436053D02*
X106153926Y-41439203D01*
X106174750Y-41444419D01*
X106194962Y-41451651D01*
X106214368Y-41460830D01*
X106232781Y-41471866D01*
X106250024Y-41484654D01*
X106265930Y-41499070D01*
X106280346Y-41514976D01*
X106293134Y-41532219D01*
X106304170Y-41550632D01*
X106313349Y-41570038D01*
X106320581Y-41590250D01*
X106325797Y-41611074D01*
X106328947Y-41632309D01*
X106330000Y-41653750D01*
X106330000Y-42166250D01*
X106328947Y-42187691D01*
X106325797Y-42208926D01*
X106320581Y-42229750D01*
X106313349Y-42249962D01*
X106304170Y-42269368D01*
X106293134Y-42287781D01*
X106280346Y-42305024D01*
X106265930Y-42320930D01*
X106250024Y-42335346D01*
X106232781Y-42348134D01*
X106214368Y-42359170D01*
X106194962Y-42368349D01*
X106174750Y-42375581D01*
X106153926Y-42380797D01*
X106132691Y-42383947D01*
X106111250Y-42385000D01*
X105673750Y-42385000D01*
X105652309Y-42383947D01*
X105631074Y-42380797D01*
X105610250Y-42375581D01*
X105590038Y-42368349D01*
X105570632Y-42359170D01*
X105552219Y-42348134D01*
X105534976Y-42335346D01*
X105519070Y-42320930D01*
X105504654Y-42305024D01*
X105491866Y-42287781D01*
X105480830Y-42269368D01*
X105471651Y-42249962D01*
X105464419Y-42229750D01*
X105459203Y-42208926D01*
X105456053Y-42187691D01*
X105455000Y-42166250D01*
X105455000Y-41653750D01*
X105456053Y-41632309D01*
X105459203Y-41611074D01*
X105464419Y-41590250D01*
X105471651Y-41570038D01*
X105480830Y-41550632D01*
X105491866Y-41532219D01*
X105504654Y-41514976D01*
X105519070Y-41499070D01*
X105534976Y-41484654D01*
X105552219Y-41471866D01*
X105570632Y-41460830D01*
X105590038Y-41451651D01*
X105610250Y-41444419D01*
X105631074Y-41439203D01*
X105652309Y-41436053D01*
X105673750Y-41435000D01*
X106111250Y-41435000D01*
X106132691Y-41436053D01*
X106132691Y-41436053D01*
G37*
D11*
X105892500Y-41910000D03*
D10*
G36*
X107707691Y-41436053D02*
X107728926Y-41439203D01*
X107749750Y-41444419D01*
X107769962Y-41451651D01*
X107789368Y-41460830D01*
X107807781Y-41471866D01*
X107825024Y-41484654D01*
X107840930Y-41499070D01*
X107855346Y-41514976D01*
X107868134Y-41532219D01*
X107879170Y-41550632D01*
X107888349Y-41570038D01*
X107895581Y-41590250D01*
X107900797Y-41611074D01*
X107903947Y-41632309D01*
X107905000Y-41653750D01*
X107905000Y-42166250D01*
X107903947Y-42187691D01*
X107900797Y-42208926D01*
X107895581Y-42229750D01*
X107888349Y-42249962D01*
X107879170Y-42269368D01*
X107868134Y-42287781D01*
X107855346Y-42305024D01*
X107840930Y-42320930D01*
X107825024Y-42335346D01*
X107807781Y-42348134D01*
X107789368Y-42359170D01*
X107769962Y-42368349D01*
X107749750Y-42375581D01*
X107728926Y-42380797D01*
X107707691Y-42383947D01*
X107686250Y-42385000D01*
X107248750Y-42385000D01*
X107227309Y-42383947D01*
X107206074Y-42380797D01*
X107185250Y-42375581D01*
X107165038Y-42368349D01*
X107145632Y-42359170D01*
X107127219Y-42348134D01*
X107109976Y-42335346D01*
X107094070Y-42320930D01*
X107079654Y-42305024D01*
X107066866Y-42287781D01*
X107055830Y-42269368D01*
X107046651Y-42249962D01*
X107039419Y-42229750D01*
X107034203Y-42208926D01*
X107031053Y-42187691D01*
X107030000Y-42166250D01*
X107030000Y-41653750D01*
X107031053Y-41632309D01*
X107034203Y-41611074D01*
X107039419Y-41590250D01*
X107046651Y-41570038D01*
X107055830Y-41550632D01*
X107066866Y-41532219D01*
X107079654Y-41514976D01*
X107094070Y-41499070D01*
X107109976Y-41484654D01*
X107127219Y-41471866D01*
X107145632Y-41460830D01*
X107165038Y-41451651D01*
X107185250Y-41444419D01*
X107206074Y-41439203D01*
X107227309Y-41436053D01*
X107248750Y-41435000D01*
X107686250Y-41435000D01*
X107707691Y-41436053D01*
X107707691Y-41436053D01*
G37*
D11*
X107467500Y-41910000D03*
G04 #@! TD*
D10*
G04 #@! TO.C,R7*
G36*
X106132691Y-43976053D02*
X106153926Y-43979203D01*
X106174750Y-43984419D01*
X106194962Y-43991651D01*
X106214368Y-44000830D01*
X106232781Y-44011866D01*
X106250024Y-44024654D01*
X106265930Y-44039070D01*
X106280346Y-44054976D01*
X106293134Y-44072219D01*
X106304170Y-44090632D01*
X106313349Y-44110038D01*
X106320581Y-44130250D01*
X106325797Y-44151074D01*
X106328947Y-44172309D01*
X106330000Y-44193750D01*
X106330000Y-44706250D01*
X106328947Y-44727691D01*
X106325797Y-44748926D01*
X106320581Y-44769750D01*
X106313349Y-44789962D01*
X106304170Y-44809368D01*
X106293134Y-44827781D01*
X106280346Y-44845024D01*
X106265930Y-44860930D01*
X106250024Y-44875346D01*
X106232781Y-44888134D01*
X106214368Y-44899170D01*
X106194962Y-44908349D01*
X106174750Y-44915581D01*
X106153926Y-44920797D01*
X106132691Y-44923947D01*
X106111250Y-44925000D01*
X105673750Y-44925000D01*
X105652309Y-44923947D01*
X105631074Y-44920797D01*
X105610250Y-44915581D01*
X105590038Y-44908349D01*
X105570632Y-44899170D01*
X105552219Y-44888134D01*
X105534976Y-44875346D01*
X105519070Y-44860930D01*
X105504654Y-44845024D01*
X105491866Y-44827781D01*
X105480830Y-44809368D01*
X105471651Y-44789962D01*
X105464419Y-44769750D01*
X105459203Y-44748926D01*
X105456053Y-44727691D01*
X105455000Y-44706250D01*
X105455000Y-44193750D01*
X105456053Y-44172309D01*
X105459203Y-44151074D01*
X105464419Y-44130250D01*
X105471651Y-44110038D01*
X105480830Y-44090632D01*
X105491866Y-44072219D01*
X105504654Y-44054976D01*
X105519070Y-44039070D01*
X105534976Y-44024654D01*
X105552219Y-44011866D01*
X105570632Y-44000830D01*
X105590038Y-43991651D01*
X105610250Y-43984419D01*
X105631074Y-43979203D01*
X105652309Y-43976053D01*
X105673750Y-43975000D01*
X106111250Y-43975000D01*
X106132691Y-43976053D01*
X106132691Y-43976053D01*
G37*
D11*
X105892500Y-44450000D03*
D10*
G36*
X107707691Y-43976053D02*
X107728926Y-43979203D01*
X107749750Y-43984419D01*
X107769962Y-43991651D01*
X107789368Y-44000830D01*
X107807781Y-44011866D01*
X107825024Y-44024654D01*
X107840930Y-44039070D01*
X107855346Y-44054976D01*
X107868134Y-44072219D01*
X107879170Y-44090632D01*
X107888349Y-44110038D01*
X107895581Y-44130250D01*
X107900797Y-44151074D01*
X107903947Y-44172309D01*
X107905000Y-44193750D01*
X107905000Y-44706250D01*
X107903947Y-44727691D01*
X107900797Y-44748926D01*
X107895581Y-44769750D01*
X107888349Y-44789962D01*
X107879170Y-44809368D01*
X107868134Y-44827781D01*
X107855346Y-44845024D01*
X107840930Y-44860930D01*
X107825024Y-44875346D01*
X107807781Y-44888134D01*
X107789368Y-44899170D01*
X107769962Y-44908349D01*
X107749750Y-44915581D01*
X107728926Y-44920797D01*
X107707691Y-44923947D01*
X107686250Y-44925000D01*
X107248750Y-44925000D01*
X107227309Y-44923947D01*
X107206074Y-44920797D01*
X107185250Y-44915581D01*
X107165038Y-44908349D01*
X107145632Y-44899170D01*
X107127219Y-44888134D01*
X107109976Y-44875346D01*
X107094070Y-44860930D01*
X107079654Y-44845024D01*
X107066866Y-44827781D01*
X107055830Y-44809368D01*
X107046651Y-44789962D01*
X107039419Y-44769750D01*
X107034203Y-44748926D01*
X107031053Y-44727691D01*
X107030000Y-44706250D01*
X107030000Y-44193750D01*
X107031053Y-44172309D01*
X107034203Y-44151074D01*
X107039419Y-44130250D01*
X107046651Y-44110038D01*
X107055830Y-44090632D01*
X107066866Y-44072219D01*
X107079654Y-44054976D01*
X107094070Y-44039070D01*
X107109976Y-44024654D01*
X107127219Y-44011866D01*
X107145632Y-44000830D01*
X107165038Y-43991651D01*
X107185250Y-43984419D01*
X107206074Y-43979203D01*
X107227309Y-43976053D01*
X107248750Y-43975000D01*
X107686250Y-43975000D01*
X107707691Y-43976053D01*
X107707691Y-43976053D01*
G37*
D11*
X107467500Y-44450000D03*
G04 #@! TD*
D10*
G04 #@! TO.C,R8*
G36*
X107707691Y-46516053D02*
X107728926Y-46519203D01*
X107749750Y-46524419D01*
X107769962Y-46531651D01*
X107789368Y-46540830D01*
X107807781Y-46551866D01*
X107825024Y-46564654D01*
X107840930Y-46579070D01*
X107855346Y-46594976D01*
X107868134Y-46612219D01*
X107879170Y-46630632D01*
X107888349Y-46650038D01*
X107895581Y-46670250D01*
X107900797Y-46691074D01*
X107903947Y-46712309D01*
X107905000Y-46733750D01*
X107905000Y-47246250D01*
X107903947Y-47267691D01*
X107900797Y-47288926D01*
X107895581Y-47309750D01*
X107888349Y-47329962D01*
X107879170Y-47349368D01*
X107868134Y-47367781D01*
X107855346Y-47385024D01*
X107840930Y-47400930D01*
X107825024Y-47415346D01*
X107807781Y-47428134D01*
X107789368Y-47439170D01*
X107769962Y-47448349D01*
X107749750Y-47455581D01*
X107728926Y-47460797D01*
X107707691Y-47463947D01*
X107686250Y-47465000D01*
X107248750Y-47465000D01*
X107227309Y-47463947D01*
X107206074Y-47460797D01*
X107185250Y-47455581D01*
X107165038Y-47448349D01*
X107145632Y-47439170D01*
X107127219Y-47428134D01*
X107109976Y-47415346D01*
X107094070Y-47400930D01*
X107079654Y-47385024D01*
X107066866Y-47367781D01*
X107055830Y-47349368D01*
X107046651Y-47329962D01*
X107039419Y-47309750D01*
X107034203Y-47288926D01*
X107031053Y-47267691D01*
X107030000Y-47246250D01*
X107030000Y-46733750D01*
X107031053Y-46712309D01*
X107034203Y-46691074D01*
X107039419Y-46670250D01*
X107046651Y-46650038D01*
X107055830Y-46630632D01*
X107066866Y-46612219D01*
X107079654Y-46594976D01*
X107094070Y-46579070D01*
X107109976Y-46564654D01*
X107127219Y-46551866D01*
X107145632Y-46540830D01*
X107165038Y-46531651D01*
X107185250Y-46524419D01*
X107206074Y-46519203D01*
X107227309Y-46516053D01*
X107248750Y-46515000D01*
X107686250Y-46515000D01*
X107707691Y-46516053D01*
X107707691Y-46516053D01*
G37*
D11*
X107467500Y-46990000D03*
D10*
G36*
X106132691Y-46516053D02*
X106153926Y-46519203D01*
X106174750Y-46524419D01*
X106194962Y-46531651D01*
X106214368Y-46540830D01*
X106232781Y-46551866D01*
X106250024Y-46564654D01*
X106265930Y-46579070D01*
X106280346Y-46594976D01*
X106293134Y-46612219D01*
X106304170Y-46630632D01*
X106313349Y-46650038D01*
X106320581Y-46670250D01*
X106325797Y-46691074D01*
X106328947Y-46712309D01*
X106330000Y-46733750D01*
X106330000Y-47246250D01*
X106328947Y-47267691D01*
X106325797Y-47288926D01*
X106320581Y-47309750D01*
X106313349Y-47329962D01*
X106304170Y-47349368D01*
X106293134Y-47367781D01*
X106280346Y-47385024D01*
X106265930Y-47400930D01*
X106250024Y-47415346D01*
X106232781Y-47428134D01*
X106214368Y-47439170D01*
X106194962Y-47448349D01*
X106174750Y-47455581D01*
X106153926Y-47460797D01*
X106132691Y-47463947D01*
X106111250Y-47465000D01*
X105673750Y-47465000D01*
X105652309Y-47463947D01*
X105631074Y-47460797D01*
X105610250Y-47455581D01*
X105590038Y-47448349D01*
X105570632Y-47439170D01*
X105552219Y-47428134D01*
X105534976Y-47415346D01*
X105519070Y-47400930D01*
X105504654Y-47385024D01*
X105491866Y-47367781D01*
X105480830Y-47349368D01*
X105471651Y-47329962D01*
X105464419Y-47309750D01*
X105459203Y-47288926D01*
X105456053Y-47267691D01*
X105455000Y-47246250D01*
X105455000Y-46733750D01*
X105456053Y-46712309D01*
X105459203Y-46691074D01*
X105464419Y-46670250D01*
X105471651Y-46650038D01*
X105480830Y-46630632D01*
X105491866Y-46612219D01*
X105504654Y-46594976D01*
X105519070Y-46579070D01*
X105534976Y-46564654D01*
X105552219Y-46551866D01*
X105570632Y-46540830D01*
X105590038Y-46531651D01*
X105610250Y-46524419D01*
X105631074Y-46519203D01*
X105652309Y-46516053D01*
X105673750Y-46515000D01*
X106111250Y-46515000D01*
X106132691Y-46516053D01*
X106132691Y-46516053D01*
G37*
D11*
X105892500Y-46990000D03*
G04 #@! TD*
D10*
G04 #@! TO.C,R9*
G36*
X130567691Y-74456053D02*
X130588926Y-74459203D01*
X130609750Y-74464419D01*
X130629962Y-74471651D01*
X130649368Y-74480830D01*
X130667781Y-74491866D01*
X130685024Y-74504654D01*
X130700930Y-74519070D01*
X130715346Y-74534976D01*
X130728134Y-74552219D01*
X130739170Y-74570632D01*
X130748349Y-74590038D01*
X130755581Y-74610250D01*
X130760797Y-74631074D01*
X130763947Y-74652309D01*
X130765000Y-74673750D01*
X130765000Y-75186250D01*
X130763947Y-75207691D01*
X130760797Y-75228926D01*
X130755581Y-75249750D01*
X130748349Y-75269962D01*
X130739170Y-75289368D01*
X130728134Y-75307781D01*
X130715346Y-75325024D01*
X130700930Y-75340930D01*
X130685024Y-75355346D01*
X130667781Y-75368134D01*
X130649368Y-75379170D01*
X130629962Y-75388349D01*
X130609750Y-75395581D01*
X130588926Y-75400797D01*
X130567691Y-75403947D01*
X130546250Y-75405000D01*
X130108750Y-75405000D01*
X130087309Y-75403947D01*
X130066074Y-75400797D01*
X130045250Y-75395581D01*
X130025038Y-75388349D01*
X130005632Y-75379170D01*
X129987219Y-75368134D01*
X129969976Y-75355346D01*
X129954070Y-75340930D01*
X129939654Y-75325024D01*
X129926866Y-75307781D01*
X129915830Y-75289368D01*
X129906651Y-75269962D01*
X129899419Y-75249750D01*
X129894203Y-75228926D01*
X129891053Y-75207691D01*
X129890000Y-75186250D01*
X129890000Y-74673750D01*
X129891053Y-74652309D01*
X129894203Y-74631074D01*
X129899419Y-74610250D01*
X129906651Y-74590038D01*
X129915830Y-74570632D01*
X129926866Y-74552219D01*
X129939654Y-74534976D01*
X129954070Y-74519070D01*
X129969976Y-74504654D01*
X129987219Y-74491866D01*
X130005632Y-74480830D01*
X130025038Y-74471651D01*
X130045250Y-74464419D01*
X130066074Y-74459203D01*
X130087309Y-74456053D01*
X130108750Y-74455000D01*
X130546250Y-74455000D01*
X130567691Y-74456053D01*
X130567691Y-74456053D01*
G37*
D11*
X130327500Y-74930000D03*
D10*
G36*
X128992691Y-74456053D02*
X129013926Y-74459203D01*
X129034750Y-74464419D01*
X129054962Y-74471651D01*
X129074368Y-74480830D01*
X129092781Y-74491866D01*
X129110024Y-74504654D01*
X129125930Y-74519070D01*
X129140346Y-74534976D01*
X129153134Y-74552219D01*
X129164170Y-74570632D01*
X129173349Y-74590038D01*
X129180581Y-74610250D01*
X129185797Y-74631074D01*
X129188947Y-74652309D01*
X129190000Y-74673750D01*
X129190000Y-75186250D01*
X129188947Y-75207691D01*
X129185797Y-75228926D01*
X129180581Y-75249750D01*
X129173349Y-75269962D01*
X129164170Y-75289368D01*
X129153134Y-75307781D01*
X129140346Y-75325024D01*
X129125930Y-75340930D01*
X129110024Y-75355346D01*
X129092781Y-75368134D01*
X129074368Y-75379170D01*
X129054962Y-75388349D01*
X129034750Y-75395581D01*
X129013926Y-75400797D01*
X128992691Y-75403947D01*
X128971250Y-75405000D01*
X128533750Y-75405000D01*
X128512309Y-75403947D01*
X128491074Y-75400797D01*
X128470250Y-75395581D01*
X128450038Y-75388349D01*
X128430632Y-75379170D01*
X128412219Y-75368134D01*
X128394976Y-75355346D01*
X128379070Y-75340930D01*
X128364654Y-75325024D01*
X128351866Y-75307781D01*
X128340830Y-75289368D01*
X128331651Y-75269962D01*
X128324419Y-75249750D01*
X128319203Y-75228926D01*
X128316053Y-75207691D01*
X128315000Y-75186250D01*
X128315000Y-74673750D01*
X128316053Y-74652309D01*
X128319203Y-74631074D01*
X128324419Y-74610250D01*
X128331651Y-74590038D01*
X128340830Y-74570632D01*
X128351866Y-74552219D01*
X128364654Y-74534976D01*
X128379070Y-74519070D01*
X128394976Y-74504654D01*
X128412219Y-74491866D01*
X128430632Y-74480830D01*
X128450038Y-74471651D01*
X128470250Y-74464419D01*
X128491074Y-74459203D01*
X128512309Y-74456053D01*
X128533750Y-74455000D01*
X128971250Y-74455000D01*
X128992691Y-74456053D01*
X128992691Y-74456053D01*
G37*
D11*
X128752500Y-74930000D03*
G04 #@! TD*
D10*
G04 #@! TO.C,R10*
G36*
X128992691Y-71916053D02*
X129013926Y-71919203D01*
X129034750Y-71924419D01*
X129054962Y-71931651D01*
X129074368Y-71940830D01*
X129092781Y-71951866D01*
X129110024Y-71964654D01*
X129125930Y-71979070D01*
X129140346Y-71994976D01*
X129153134Y-72012219D01*
X129164170Y-72030632D01*
X129173349Y-72050038D01*
X129180581Y-72070250D01*
X129185797Y-72091074D01*
X129188947Y-72112309D01*
X129190000Y-72133750D01*
X129190000Y-72646250D01*
X129188947Y-72667691D01*
X129185797Y-72688926D01*
X129180581Y-72709750D01*
X129173349Y-72729962D01*
X129164170Y-72749368D01*
X129153134Y-72767781D01*
X129140346Y-72785024D01*
X129125930Y-72800930D01*
X129110024Y-72815346D01*
X129092781Y-72828134D01*
X129074368Y-72839170D01*
X129054962Y-72848349D01*
X129034750Y-72855581D01*
X129013926Y-72860797D01*
X128992691Y-72863947D01*
X128971250Y-72865000D01*
X128533750Y-72865000D01*
X128512309Y-72863947D01*
X128491074Y-72860797D01*
X128470250Y-72855581D01*
X128450038Y-72848349D01*
X128430632Y-72839170D01*
X128412219Y-72828134D01*
X128394976Y-72815346D01*
X128379070Y-72800930D01*
X128364654Y-72785024D01*
X128351866Y-72767781D01*
X128340830Y-72749368D01*
X128331651Y-72729962D01*
X128324419Y-72709750D01*
X128319203Y-72688926D01*
X128316053Y-72667691D01*
X128315000Y-72646250D01*
X128315000Y-72133750D01*
X128316053Y-72112309D01*
X128319203Y-72091074D01*
X128324419Y-72070250D01*
X128331651Y-72050038D01*
X128340830Y-72030632D01*
X128351866Y-72012219D01*
X128364654Y-71994976D01*
X128379070Y-71979070D01*
X128394976Y-71964654D01*
X128412219Y-71951866D01*
X128430632Y-71940830D01*
X128450038Y-71931651D01*
X128470250Y-71924419D01*
X128491074Y-71919203D01*
X128512309Y-71916053D01*
X128533750Y-71915000D01*
X128971250Y-71915000D01*
X128992691Y-71916053D01*
X128992691Y-71916053D01*
G37*
D11*
X128752500Y-72390000D03*
D10*
G36*
X130567691Y-71916053D02*
X130588926Y-71919203D01*
X130609750Y-71924419D01*
X130629962Y-71931651D01*
X130649368Y-71940830D01*
X130667781Y-71951866D01*
X130685024Y-71964654D01*
X130700930Y-71979070D01*
X130715346Y-71994976D01*
X130728134Y-72012219D01*
X130739170Y-72030632D01*
X130748349Y-72050038D01*
X130755581Y-72070250D01*
X130760797Y-72091074D01*
X130763947Y-72112309D01*
X130765000Y-72133750D01*
X130765000Y-72646250D01*
X130763947Y-72667691D01*
X130760797Y-72688926D01*
X130755581Y-72709750D01*
X130748349Y-72729962D01*
X130739170Y-72749368D01*
X130728134Y-72767781D01*
X130715346Y-72785024D01*
X130700930Y-72800930D01*
X130685024Y-72815346D01*
X130667781Y-72828134D01*
X130649368Y-72839170D01*
X130629962Y-72848349D01*
X130609750Y-72855581D01*
X130588926Y-72860797D01*
X130567691Y-72863947D01*
X130546250Y-72865000D01*
X130108750Y-72865000D01*
X130087309Y-72863947D01*
X130066074Y-72860797D01*
X130045250Y-72855581D01*
X130025038Y-72848349D01*
X130005632Y-72839170D01*
X129987219Y-72828134D01*
X129969976Y-72815346D01*
X129954070Y-72800930D01*
X129939654Y-72785024D01*
X129926866Y-72767781D01*
X129915830Y-72749368D01*
X129906651Y-72729962D01*
X129899419Y-72709750D01*
X129894203Y-72688926D01*
X129891053Y-72667691D01*
X129890000Y-72646250D01*
X129890000Y-72133750D01*
X129891053Y-72112309D01*
X129894203Y-72091074D01*
X129899419Y-72070250D01*
X129906651Y-72050038D01*
X129915830Y-72030632D01*
X129926866Y-72012219D01*
X129939654Y-71994976D01*
X129954070Y-71979070D01*
X129969976Y-71964654D01*
X129987219Y-71951866D01*
X130005632Y-71940830D01*
X130025038Y-71931651D01*
X130045250Y-71924419D01*
X130066074Y-71919203D01*
X130087309Y-71916053D01*
X130108750Y-71915000D01*
X130546250Y-71915000D01*
X130567691Y-71916053D01*
X130567691Y-71916053D01*
G37*
D11*
X130327500Y-72390000D03*
G04 #@! TD*
D10*
G04 #@! TO.C,R11*
G36*
X130567691Y-69376053D02*
X130588926Y-69379203D01*
X130609750Y-69384419D01*
X130629962Y-69391651D01*
X130649368Y-69400830D01*
X130667781Y-69411866D01*
X130685024Y-69424654D01*
X130700930Y-69439070D01*
X130715346Y-69454976D01*
X130728134Y-69472219D01*
X130739170Y-69490632D01*
X130748349Y-69510038D01*
X130755581Y-69530250D01*
X130760797Y-69551074D01*
X130763947Y-69572309D01*
X130765000Y-69593750D01*
X130765000Y-70106250D01*
X130763947Y-70127691D01*
X130760797Y-70148926D01*
X130755581Y-70169750D01*
X130748349Y-70189962D01*
X130739170Y-70209368D01*
X130728134Y-70227781D01*
X130715346Y-70245024D01*
X130700930Y-70260930D01*
X130685024Y-70275346D01*
X130667781Y-70288134D01*
X130649368Y-70299170D01*
X130629962Y-70308349D01*
X130609750Y-70315581D01*
X130588926Y-70320797D01*
X130567691Y-70323947D01*
X130546250Y-70325000D01*
X130108750Y-70325000D01*
X130087309Y-70323947D01*
X130066074Y-70320797D01*
X130045250Y-70315581D01*
X130025038Y-70308349D01*
X130005632Y-70299170D01*
X129987219Y-70288134D01*
X129969976Y-70275346D01*
X129954070Y-70260930D01*
X129939654Y-70245024D01*
X129926866Y-70227781D01*
X129915830Y-70209368D01*
X129906651Y-70189962D01*
X129899419Y-70169750D01*
X129894203Y-70148926D01*
X129891053Y-70127691D01*
X129890000Y-70106250D01*
X129890000Y-69593750D01*
X129891053Y-69572309D01*
X129894203Y-69551074D01*
X129899419Y-69530250D01*
X129906651Y-69510038D01*
X129915830Y-69490632D01*
X129926866Y-69472219D01*
X129939654Y-69454976D01*
X129954070Y-69439070D01*
X129969976Y-69424654D01*
X129987219Y-69411866D01*
X130005632Y-69400830D01*
X130025038Y-69391651D01*
X130045250Y-69384419D01*
X130066074Y-69379203D01*
X130087309Y-69376053D01*
X130108750Y-69375000D01*
X130546250Y-69375000D01*
X130567691Y-69376053D01*
X130567691Y-69376053D01*
G37*
D11*
X130327500Y-69850000D03*
D10*
G36*
X128992691Y-69376053D02*
X129013926Y-69379203D01*
X129034750Y-69384419D01*
X129054962Y-69391651D01*
X129074368Y-69400830D01*
X129092781Y-69411866D01*
X129110024Y-69424654D01*
X129125930Y-69439070D01*
X129140346Y-69454976D01*
X129153134Y-69472219D01*
X129164170Y-69490632D01*
X129173349Y-69510038D01*
X129180581Y-69530250D01*
X129185797Y-69551074D01*
X129188947Y-69572309D01*
X129190000Y-69593750D01*
X129190000Y-70106250D01*
X129188947Y-70127691D01*
X129185797Y-70148926D01*
X129180581Y-70169750D01*
X129173349Y-70189962D01*
X129164170Y-70209368D01*
X129153134Y-70227781D01*
X129140346Y-70245024D01*
X129125930Y-70260930D01*
X129110024Y-70275346D01*
X129092781Y-70288134D01*
X129074368Y-70299170D01*
X129054962Y-70308349D01*
X129034750Y-70315581D01*
X129013926Y-70320797D01*
X128992691Y-70323947D01*
X128971250Y-70325000D01*
X128533750Y-70325000D01*
X128512309Y-70323947D01*
X128491074Y-70320797D01*
X128470250Y-70315581D01*
X128450038Y-70308349D01*
X128430632Y-70299170D01*
X128412219Y-70288134D01*
X128394976Y-70275346D01*
X128379070Y-70260930D01*
X128364654Y-70245024D01*
X128351866Y-70227781D01*
X128340830Y-70209368D01*
X128331651Y-70189962D01*
X128324419Y-70169750D01*
X128319203Y-70148926D01*
X128316053Y-70127691D01*
X128315000Y-70106250D01*
X128315000Y-69593750D01*
X128316053Y-69572309D01*
X128319203Y-69551074D01*
X128324419Y-69530250D01*
X128331651Y-69510038D01*
X128340830Y-69490632D01*
X128351866Y-69472219D01*
X128364654Y-69454976D01*
X128379070Y-69439070D01*
X128394976Y-69424654D01*
X128412219Y-69411866D01*
X128430632Y-69400830D01*
X128450038Y-69391651D01*
X128470250Y-69384419D01*
X128491074Y-69379203D01*
X128512309Y-69376053D01*
X128533750Y-69375000D01*
X128971250Y-69375000D01*
X128992691Y-69376053D01*
X128992691Y-69376053D01*
G37*
D11*
X128752500Y-69850000D03*
G04 #@! TD*
D10*
G04 #@! TO.C,R12*
G36*
X128992691Y-66836053D02*
X129013926Y-66839203D01*
X129034750Y-66844419D01*
X129054962Y-66851651D01*
X129074368Y-66860830D01*
X129092781Y-66871866D01*
X129110024Y-66884654D01*
X129125930Y-66899070D01*
X129140346Y-66914976D01*
X129153134Y-66932219D01*
X129164170Y-66950632D01*
X129173349Y-66970038D01*
X129180581Y-66990250D01*
X129185797Y-67011074D01*
X129188947Y-67032309D01*
X129190000Y-67053750D01*
X129190000Y-67566250D01*
X129188947Y-67587691D01*
X129185797Y-67608926D01*
X129180581Y-67629750D01*
X129173349Y-67649962D01*
X129164170Y-67669368D01*
X129153134Y-67687781D01*
X129140346Y-67705024D01*
X129125930Y-67720930D01*
X129110024Y-67735346D01*
X129092781Y-67748134D01*
X129074368Y-67759170D01*
X129054962Y-67768349D01*
X129034750Y-67775581D01*
X129013926Y-67780797D01*
X128992691Y-67783947D01*
X128971250Y-67785000D01*
X128533750Y-67785000D01*
X128512309Y-67783947D01*
X128491074Y-67780797D01*
X128470250Y-67775581D01*
X128450038Y-67768349D01*
X128430632Y-67759170D01*
X128412219Y-67748134D01*
X128394976Y-67735346D01*
X128379070Y-67720930D01*
X128364654Y-67705024D01*
X128351866Y-67687781D01*
X128340830Y-67669368D01*
X128331651Y-67649962D01*
X128324419Y-67629750D01*
X128319203Y-67608926D01*
X128316053Y-67587691D01*
X128315000Y-67566250D01*
X128315000Y-67053750D01*
X128316053Y-67032309D01*
X128319203Y-67011074D01*
X128324419Y-66990250D01*
X128331651Y-66970038D01*
X128340830Y-66950632D01*
X128351866Y-66932219D01*
X128364654Y-66914976D01*
X128379070Y-66899070D01*
X128394976Y-66884654D01*
X128412219Y-66871866D01*
X128430632Y-66860830D01*
X128450038Y-66851651D01*
X128470250Y-66844419D01*
X128491074Y-66839203D01*
X128512309Y-66836053D01*
X128533750Y-66835000D01*
X128971250Y-66835000D01*
X128992691Y-66836053D01*
X128992691Y-66836053D01*
G37*
D11*
X128752500Y-67310000D03*
D10*
G36*
X130567691Y-66836053D02*
X130588926Y-66839203D01*
X130609750Y-66844419D01*
X130629962Y-66851651D01*
X130649368Y-66860830D01*
X130667781Y-66871866D01*
X130685024Y-66884654D01*
X130700930Y-66899070D01*
X130715346Y-66914976D01*
X130728134Y-66932219D01*
X130739170Y-66950632D01*
X130748349Y-66970038D01*
X130755581Y-66990250D01*
X130760797Y-67011074D01*
X130763947Y-67032309D01*
X130765000Y-67053750D01*
X130765000Y-67566250D01*
X130763947Y-67587691D01*
X130760797Y-67608926D01*
X130755581Y-67629750D01*
X130748349Y-67649962D01*
X130739170Y-67669368D01*
X130728134Y-67687781D01*
X130715346Y-67705024D01*
X130700930Y-67720930D01*
X130685024Y-67735346D01*
X130667781Y-67748134D01*
X130649368Y-67759170D01*
X130629962Y-67768349D01*
X130609750Y-67775581D01*
X130588926Y-67780797D01*
X130567691Y-67783947D01*
X130546250Y-67785000D01*
X130108750Y-67785000D01*
X130087309Y-67783947D01*
X130066074Y-67780797D01*
X130045250Y-67775581D01*
X130025038Y-67768349D01*
X130005632Y-67759170D01*
X129987219Y-67748134D01*
X129969976Y-67735346D01*
X129954070Y-67720930D01*
X129939654Y-67705024D01*
X129926866Y-67687781D01*
X129915830Y-67669368D01*
X129906651Y-67649962D01*
X129899419Y-67629750D01*
X129894203Y-67608926D01*
X129891053Y-67587691D01*
X129890000Y-67566250D01*
X129890000Y-67053750D01*
X129891053Y-67032309D01*
X129894203Y-67011074D01*
X129899419Y-66990250D01*
X129906651Y-66970038D01*
X129915830Y-66950632D01*
X129926866Y-66932219D01*
X129939654Y-66914976D01*
X129954070Y-66899070D01*
X129969976Y-66884654D01*
X129987219Y-66871866D01*
X130005632Y-66860830D01*
X130025038Y-66851651D01*
X130045250Y-66844419D01*
X130066074Y-66839203D01*
X130087309Y-66836053D01*
X130108750Y-66835000D01*
X130546250Y-66835000D01*
X130567691Y-66836053D01*
X130567691Y-66836053D01*
G37*
D11*
X130327500Y-67310000D03*
G04 #@! TD*
D10*
G04 #@! TO.C,R13*
G36*
X106132691Y-66836053D02*
X106153926Y-66839203D01*
X106174750Y-66844419D01*
X106194962Y-66851651D01*
X106214368Y-66860830D01*
X106232781Y-66871866D01*
X106250024Y-66884654D01*
X106265930Y-66899070D01*
X106280346Y-66914976D01*
X106293134Y-66932219D01*
X106304170Y-66950632D01*
X106313349Y-66970038D01*
X106320581Y-66990250D01*
X106325797Y-67011074D01*
X106328947Y-67032309D01*
X106330000Y-67053750D01*
X106330000Y-67566250D01*
X106328947Y-67587691D01*
X106325797Y-67608926D01*
X106320581Y-67629750D01*
X106313349Y-67649962D01*
X106304170Y-67669368D01*
X106293134Y-67687781D01*
X106280346Y-67705024D01*
X106265930Y-67720930D01*
X106250024Y-67735346D01*
X106232781Y-67748134D01*
X106214368Y-67759170D01*
X106194962Y-67768349D01*
X106174750Y-67775581D01*
X106153926Y-67780797D01*
X106132691Y-67783947D01*
X106111250Y-67785000D01*
X105673750Y-67785000D01*
X105652309Y-67783947D01*
X105631074Y-67780797D01*
X105610250Y-67775581D01*
X105590038Y-67768349D01*
X105570632Y-67759170D01*
X105552219Y-67748134D01*
X105534976Y-67735346D01*
X105519070Y-67720930D01*
X105504654Y-67705024D01*
X105491866Y-67687781D01*
X105480830Y-67669368D01*
X105471651Y-67649962D01*
X105464419Y-67629750D01*
X105459203Y-67608926D01*
X105456053Y-67587691D01*
X105455000Y-67566250D01*
X105455000Y-67053750D01*
X105456053Y-67032309D01*
X105459203Y-67011074D01*
X105464419Y-66990250D01*
X105471651Y-66970038D01*
X105480830Y-66950632D01*
X105491866Y-66932219D01*
X105504654Y-66914976D01*
X105519070Y-66899070D01*
X105534976Y-66884654D01*
X105552219Y-66871866D01*
X105570632Y-66860830D01*
X105590038Y-66851651D01*
X105610250Y-66844419D01*
X105631074Y-66839203D01*
X105652309Y-66836053D01*
X105673750Y-66835000D01*
X106111250Y-66835000D01*
X106132691Y-66836053D01*
X106132691Y-66836053D01*
G37*
D11*
X105892500Y-67310000D03*
D10*
G36*
X107707691Y-66836053D02*
X107728926Y-66839203D01*
X107749750Y-66844419D01*
X107769962Y-66851651D01*
X107789368Y-66860830D01*
X107807781Y-66871866D01*
X107825024Y-66884654D01*
X107840930Y-66899070D01*
X107855346Y-66914976D01*
X107868134Y-66932219D01*
X107879170Y-66950632D01*
X107888349Y-66970038D01*
X107895581Y-66990250D01*
X107900797Y-67011074D01*
X107903947Y-67032309D01*
X107905000Y-67053750D01*
X107905000Y-67566250D01*
X107903947Y-67587691D01*
X107900797Y-67608926D01*
X107895581Y-67629750D01*
X107888349Y-67649962D01*
X107879170Y-67669368D01*
X107868134Y-67687781D01*
X107855346Y-67705024D01*
X107840930Y-67720930D01*
X107825024Y-67735346D01*
X107807781Y-67748134D01*
X107789368Y-67759170D01*
X107769962Y-67768349D01*
X107749750Y-67775581D01*
X107728926Y-67780797D01*
X107707691Y-67783947D01*
X107686250Y-67785000D01*
X107248750Y-67785000D01*
X107227309Y-67783947D01*
X107206074Y-67780797D01*
X107185250Y-67775581D01*
X107165038Y-67768349D01*
X107145632Y-67759170D01*
X107127219Y-67748134D01*
X107109976Y-67735346D01*
X107094070Y-67720930D01*
X107079654Y-67705024D01*
X107066866Y-67687781D01*
X107055830Y-67669368D01*
X107046651Y-67649962D01*
X107039419Y-67629750D01*
X107034203Y-67608926D01*
X107031053Y-67587691D01*
X107030000Y-67566250D01*
X107030000Y-67053750D01*
X107031053Y-67032309D01*
X107034203Y-67011074D01*
X107039419Y-66990250D01*
X107046651Y-66970038D01*
X107055830Y-66950632D01*
X107066866Y-66932219D01*
X107079654Y-66914976D01*
X107094070Y-66899070D01*
X107109976Y-66884654D01*
X107127219Y-66871866D01*
X107145632Y-66860830D01*
X107165038Y-66851651D01*
X107185250Y-66844419D01*
X107206074Y-66839203D01*
X107227309Y-66836053D01*
X107248750Y-66835000D01*
X107686250Y-66835000D01*
X107707691Y-66836053D01*
X107707691Y-66836053D01*
G37*
D11*
X107467500Y-67310000D03*
G04 #@! TD*
D10*
G04 #@! TO.C,R14*
G36*
X107707691Y-69376053D02*
X107728926Y-69379203D01*
X107749750Y-69384419D01*
X107769962Y-69391651D01*
X107789368Y-69400830D01*
X107807781Y-69411866D01*
X107825024Y-69424654D01*
X107840930Y-69439070D01*
X107855346Y-69454976D01*
X107868134Y-69472219D01*
X107879170Y-69490632D01*
X107888349Y-69510038D01*
X107895581Y-69530250D01*
X107900797Y-69551074D01*
X107903947Y-69572309D01*
X107905000Y-69593750D01*
X107905000Y-70106250D01*
X107903947Y-70127691D01*
X107900797Y-70148926D01*
X107895581Y-70169750D01*
X107888349Y-70189962D01*
X107879170Y-70209368D01*
X107868134Y-70227781D01*
X107855346Y-70245024D01*
X107840930Y-70260930D01*
X107825024Y-70275346D01*
X107807781Y-70288134D01*
X107789368Y-70299170D01*
X107769962Y-70308349D01*
X107749750Y-70315581D01*
X107728926Y-70320797D01*
X107707691Y-70323947D01*
X107686250Y-70325000D01*
X107248750Y-70325000D01*
X107227309Y-70323947D01*
X107206074Y-70320797D01*
X107185250Y-70315581D01*
X107165038Y-70308349D01*
X107145632Y-70299170D01*
X107127219Y-70288134D01*
X107109976Y-70275346D01*
X107094070Y-70260930D01*
X107079654Y-70245024D01*
X107066866Y-70227781D01*
X107055830Y-70209368D01*
X107046651Y-70189962D01*
X107039419Y-70169750D01*
X107034203Y-70148926D01*
X107031053Y-70127691D01*
X107030000Y-70106250D01*
X107030000Y-69593750D01*
X107031053Y-69572309D01*
X107034203Y-69551074D01*
X107039419Y-69530250D01*
X107046651Y-69510038D01*
X107055830Y-69490632D01*
X107066866Y-69472219D01*
X107079654Y-69454976D01*
X107094070Y-69439070D01*
X107109976Y-69424654D01*
X107127219Y-69411866D01*
X107145632Y-69400830D01*
X107165038Y-69391651D01*
X107185250Y-69384419D01*
X107206074Y-69379203D01*
X107227309Y-69376053D01*
X107248750Y-69375000D01*
X107686250Y-69375000D01*
X107707691Y-69376053D01*
X107707691Y-69376053D01*
G37*
D11*
X107467500Y-69850000D03*
D10*
G36*
X106132691Y-69376053D02*
X106153926Y-69379203D01*
X106174750Y-69384419D01*
X106194962Y-69391651D01*
X106214368Y-69400830D01*
X106232781Y-69411866D01*
X106250024Y-69424654D01*
X106265930Y-69439070D01*
X106280346Y-69454976D01*
X106293134Y-69472219D01*
X106304170Y-69490632D01*
X106313349Y-69510038D01*
X106320581Y-69530250D01*
X106325797Y-69551074D01*
X106328947Y-69572309D01*
X106330000Y-69593750D01*
X106330000Y-70106250D01*
X106328947Y-70127691D01*
X106325797Y-70148926D01*
X106320581Y-70169750D01*
X106313349Y-70189962D01*
X106304170Y-70209368D01*
X106293134Y-70227781D01*
X106280346Y-70245024D01*
X106265930Y-70260930D01*
X106250024Y-70275346D01*
X106232781Y-70288134D01*
X106214368Y-70299170D01*
X106194962Y-70308349D01*
X106174750Y-70315581D01*
X106153926Y-70320797D01*
X106132691Y-70323947D01*
X106111250Y-70325000D01*
X105673750Y-70325000D01*
X105652309Y-70323947D01*
X105631074Y-70320797D01*
X105610250Y-70315581D01*
X105590038Y-70308349D01*
X105570632Y-70299170D01*
X105552219Y-70288134D01*
X105534976Y-70275346D01*
X105519070Y-70260930D01*
X105504654Y-70245024D01*
X105491866Y-70227781D01*
X105480830Y-70209368D01*
X105471651Y-70189962D01*
X105464419Y-70169750D01*
X105459203Y-70148926D01*
X105456053Y-70127691D01*
X105455000Y-70106250D01*
X105455000Y-69593750D01*
X105456053Y-69572309D01*
X105459203Y-69551074D01*
X105464419Y-69530250D01*
X105471651Y-69510038D01*
X105480830Y-69490632D01*
X105491866Y-69472219D01*
X105504654Y-69454976D01*
X105519070Y-69439070D01*
X105534976Y-69424654D01*
X105552219Y-69411866D01*
X105570632Y-69400830D01*
X105590038Y-69391651D01*
X105610250Y-69384419D01*
X105631074Y-69379203D01*
X105652309Y-69376053D01*
X105673750Y-69375000D01*
X106111250Y-69375000D01*
X106132691Y-69376053D01*
X106132691Y-69376053D01*
G37*
D11*
X105892500Y-69850000D03*
G04 #@! TD*
D10*
G04 #@! TO.C,R15*
G36*
X106132691Y-71916053D02*
X106153926Y-71919203D01*
X106174750Y-71924419D01*
X106194962Y-71931651D01*
X106214368Y-71940830D01*
X106232781Y-71951866D01*
X106250024Y-71964654D01*
X106265930Y-71979070D01*
X106280346Y-71994976D01*
X106293134Y-72012219D01*
X106304170Y-72030632D01*
X106313349Y-72050038D01*
X106320581Y-72070250D01*
X106325797Y-72091074D01*
X106328947Y-72112309D01*
X106330000Y-72133750D01*
X106330000Y-72646250D01*
X106328947Y-72667691D01*
X106325797Y-72688926D01*
X106320581Y-72709750D01*
X106313349Y-72729962D01*
X106304170Y-72749368D01*
X106293134Y-72767781D01*
X106280346Y-72785024D01*
X106265930Y-72800930D01*
X106250024Y-72815346D01*
X106232781Y-72828134D01*
X106214368Y-72839170D01*
X106194962Y-72848349D01*
X106174750Y-72855581D01*
X106153926Y-72860797D01*
X106132691Y-72863947D01*
X106111250Y-72865000D01*
X105673750Y-72865000D01*
X105652309Y-72863947D01*
X105631074Y-72860797D01*
X105610250Y-72855581D01*
X105590038Y-72848349D01*
X105570632Y-72839170D01*
X105552219Y-72828134D01*
X105534976Y-72815346D01*
X105519070Y-72800930D01*
X105504654Y-72785024D01*
X105491866Y-72767781D01*
X105480830Y-72749368D01*
X105471651Y-72729962D01*
X105464419Y-72709750D01*
X105459203Y-72688926D01*
X105456053Y-72667691D01*
X105455000Y-72646250D01*
X105455000Y-72133750D01*
X105456053Y-72112309D01*
X105459203Y-72091074D01*
X105464419Y-72070250D01*
X105471651Y-72050038D01*
X105480830Y-72030632D01*
X105491866Y-72012219D01*
X105504654Y-71994976D01*
X105519070Y-71979070D01*
X105534976Y-71964654D01*
X105552219Y-71951866D01*
X105570632Y-71940830D01*
X105590038Y-71931651D01*
X105610250Y-71924419D01*
X105631074Y-71919203D01*
X105652309Y-71916053D01*
X105673750Y-71915000D01*
X106111250Y-71915000D01*
X106132691Y-71916053D01*
X106132691Y-71916053D01*
G37*
D11*
X105892500Y-72390000D03*
D10*
G36*
X107707691Y-71916053D02*
X107728926Y-71919203D01*
X107749750Y-71924419D01*
X107769962Y-71931651D01*
X107789368Y-71940830D01*
X107807781Y-71951866D01*
X107825024Y-71964654D01*
X107840930Y-71979070D01*
X107855346Y-71994976D01*
X107868134Y-72012219D01*
X107879170Y-72030632D01*
X107888349Y-72050038D01*
X107895581Y-72070250D01*
X107900797Y-72091074D01*
X107903947Y-72112309D01*
X107905000Y-72133750D01*
X107905000Y-72646250D01*
X107903947Y-72667691D01*
X107900797Y-72688926D01*
X107895581Y-72709750D01*
X107888349Y-72729962D01*
X107879170Y-72749368D01*
X107868134Y-72767781D01*
X107855346Y-72785024D01*
X107840930Y-72800930D01*
X107825024Y-72815346D01*
X107807781Y-72828134D01*
X107789368Y-72839170D01*
X107769962Y-72848349D01*
X107749750Y-72855581D01*
X107728926Y-72860797D01*
X107707691Y-72863947D01*
X107686250Y-72865000D01*
X107248750Y-72865000D01*
X107227309Y-72863947D01*
X107206074Y-72860797D01*
X107185250Y-72855581D01*
X107165038Y-72848349D01*
X107145632Y-72839170D01*
X107127219Y-72828134D01*
X107109976Y-72815346D01*
X107094070Y-72800930D01*
X107079654Y-72785024D01*
X107066866Y-72767781D01*
X107055830Y-72749368D01*
X107046651Y-72729962D01*
X107039419Y-72709750D01*
X107034203Y-72688926D01*
X107031053Y-72667691D01*
X107030000Y-72646250D01*
X107030000Y-72133750D01*
X107031053Y-72112309D01*
X107034203Y-72091074D01*
X107039419Y-72070250D01*
X107046651Y-72050038D01*
X107055830Y-72030632D01*
X107066866Y-72012219D01*
X107079654Y-71994976D01*
X107094070Y-71979070D01*
X107109976Y-71964654D01*
X107127219Y-71951866D01*
X107145632Y-71940830D01*
X107165038Y-71931651D01*
X107185250Y-71924419D01*
X107206074Y-71919203D01*
X107227309Y-71916053D01*
X107248750Y-71915000D01*
X107686250Y-71915000D01*
X107707691Y-71916053D01*
X107707691Y-71916053D01*
G37*
D11*
X107467500Y-72390000D03*
G04 #@! TD*
D10*
G04 #@! TO.C,R16*
G36*
X107707691Y-74456053D02*
X107728926Y-74459203D01*
X107749750Y-74464419D01*
X107769962Y-74471651D01*
X107789368Y-74480830D01*
X107807781Y-74491866D01*
X107825024Y-74504654D01*
X107840930Y-74519070D01*
X107855346Y-74534976D01*
X107868134Y-74552219D01*
X107879170Y-74570632D01*
X107888349Y-74590038D01*
X107895581Y-74610250D01*
X107900797Y-74631074D01*
X107903947Y-74652309D01*
X107905000Y-74673750D01*
X107905000Y-75186250D01*
X107903947Y-75207691D01*
X107900797Y-75228926D01*
X107895581Y-75249750D01*
X107888349Y-75269962D01*
X107879170Y-75289368D01*
X107868134Y-75307781D01*
X107855346Y-75325024D01*
X107840930Y-75340930D01*
X107825024Y-75355346D01*
X107807781Y-75368134D01*
X107789368Y-75379170D01*
X107769962Y-75388349D01*
X107749750Y-75395581D01*
X107728926Y-75400797D01*
X107707691Y-75403947D01*
X107686250Y-75405000D01*
X107248750Y-75405000D01*
X107227309Y-75403947D01*
X107206074Y-75400797D01*
X107185250Y-75395581D01*
X107165038Y-75388349D01*
X107145632Y-75379170D01*
X107127219Y-75368134D01*
X107109976Y-75355346D01*
X107094070Y-75340930D01*
X107079654Y-75325024D01*
X107066866Y-75307781D01*
X107055830Y-75289368D01*
X107046651Y-75269962D01*
X107039419Y-75249750D01*
X107034203Y-75228926D01*
X107031053Y-75207691D01*
X107030000Y-75186250D01*
X107030000Y-74673750D01*
X107031053Y-74652309D01*
X107034203Y-74631074D01*
X107039419Y-74610250D01*
X107046651Y-74590038D01*
X107055830Y-74570632D01*
X107066866Y-74552219D01*
X107079654Y-74534976D01*
X107094070Y-74519070D01*
X107109976Y-74504654D01*
X107127219Y-74491866D01*
X107145632Y-74480830D01*
X107165038Y-74471651D01*
X107185250Y-74464419D01*
X107206074Y-74459203D01*
X107227309Y-74456053D01*
X107248750Y-74455000D01*
X107686250Y-74455000D01*
X107707691Y-74456053D01*
X107707691Y-74456053D01*
G37*
D11*
X107467500Y-74930000D03*
D10*
G36*
X106132691Y-74456053D02*
X106153926Y-74459203D01*
X106174750Y-74464419D01*
X106194962Y-74471651D01*
X106214368Y-74480830D01*
X106232781Y-74491866D01*
X106250024Y-74504654D01*
X106265930Y-74519070D01*
X106280346Y-74534976D01*
X106293134Y-74552219D01*
X106304170Y-74570632D01*
X106313349Y-74590038D01*
X106320581Y-74610250D01*
X106325797Y-74631074D01*
X106328947Y-74652309D01*
X106330000Y-74673750D01*
X106330000Y-75186250D01*
X106328947Y-75207691D01*
X106325797Y-75228926D01*
X106320581Y-75249750D01*
X106313349Y-75269962D01*
X106304170Y-75289368D01*
X106293134Y-75307781D01*
X106280346Y-75325024D01*
X106265930Y-75340930D01*
X106250024Y-75355346D01*
X106232781Y-75368134D01*
X106214368Y-75379170D01*
X106194962Y-75388349D01*
X106174750Y-75395581D01*
X106153926Y-75400797D01*
X106132691Y-75403947D01*
X106111250Y-75405000D01*
X105673750Y-75405000D01*
X105652309Y-75403947D01*
X105631074Y-75400797D01*
X105610250Y-75395581D01*
X105590038Y-75388349D01*
X105570632Y-75379170D01*
X105552219Y-75368134D01*
X105534976Y-75355346D01*
X105519070Y-75340930D01*
X105504654Y-75325024D01*
X105491866Y-75307781D01*
X105480830Y-75289368D01*
X105471651Y-75269962D01*
X105464419Y-75249750D01*
X105459203Y-75228926D01*
X105456053Y-75207691D01*
X105455000Y-75186250D01*
X105455000Y-74673750D01*
X105456053Y-74652309D01*
X105459203Y-74631074D01*
X105464419Y-74610250D01*
X105471651Y-74590038D01*
X105480830Y-74570632D01*
X105491866Y-74552219D01*
X105504654Y-74534976D01*
X105519070Y-74519070D01*
X105534976Y-74504654D01*
X105552219Y-74491866D01*
X105570632Y-74480830D01*
X105590038Y-74471651D01*
X105610250Y-74464419D01*
X105631074Y-74459203D01*
X105652309Y-74456053D01*
X105673750Y-74455000D01*
X106111250Y-74455000D01*
X106132691Y-74456053D01*
X106132691Y-74456053D01*
G37*
D11*
X105892500Y-74930000D03*
G04 #@! TD*
M02*
